…
    age_group <- df %>%
      group_by(age) %>%
      summarize(population = sum(as.numeric(population)), suicides = sum(as.numeric(suicides_no)), suicides_per_100k = 100000*(suicides/population))
    countries 

    ## # A tibble: 101 x 4
    ##    country            suicides population suicides_per_100k
    ##    <fct>                 <dbl>      <dbl>             <dbl>
    ##  1 Lithuania             28039   68085210              41.2
    ##  2 Russian Federation  1209742 3690802620              32.8
    ##  3 Sri Lanka             55641  182525626              30.5
    ##  4 Belarus               59892  197372292              30.3
    ##  5 Hungary               73891  248644256              29.7
    ##  6 Latvia                12770   44852640              28.5
    ##  7 Kazakhstan           101546  377513869              26.9
    ##  8 Slovenia              10615   40268619              26.4
    ##  9 Estonia                7034   27090810              26.0
    ## 10 Ukraine              319950 1286469184              24.9
    ## #  with 91 more rows

    gdp

    ## # A tibble: 2,233 x 4
    ##    gdp_per_capita suicides population suicides_per_100k
    ##             <int>    <dbl>      <dbl>             <dbl>
    ##  1            251       47    2822500              1.67
    ##  2            291      556    4298100             12.9 
    ##  3            313      510    4369202             11.7 
    ##  4            345      560    4425784             12.7 
    ##  5            357      106    3366600              3.15
    ##  6            359      567    4473163             12.7 
    ##  7            385       83    3308700              2.51
    ##  8            387      112    3402500              3.29
    ##  9            398      509    4139700             12.3 
    ## 10            424      479    4520843             10.6 
    ## #  with 2,223 more rows

    time_df

    ## # A tibble: 32 x 4
    ##     year population suicides suicides_per_100k
    ##    <int>      <dbl>    <dbl>             <dbl>
    ##  1  1985 1008600086   116063              11.5
    ##  2  1986 1029909613   120670              11.7
    ##  3  1987 1095029726   126842              11.6
    ##  4  1988 1054094424   121026              11.5
    ##  5  1989 1225514347   160244              13.1
    ##  6  1990 1466620100   193361              13.2
    ##  7  1991 1489988384   198020              13.3
    ##  8  1992 1569539447   211473              13.5
    ##  9  1993 1530416654   221565              14.5
    ## 10  1994 1548749372   232063              15.0
    ## #  with 22 more rows
…
    sex_country <- df %>%
      group_by(country, sex) %>%
      summarize(population = sum(as.numeric(population)), suicides = sum(as.numeric(suicides_no)), suicides_per_100k = 100000 * (suicides/population)) %>%
      arrange(desc(suicides))

    sex_country

    ## # A tibble: 202 x 5
    ## # Groups:   country [101]
    ##    country            sex    population suicides suicides_per_100k
    ##    <fct>              <fct>       <dbl>    <dbl>             <dbl>
    ##  1 Russian Federation male   1710091647   995412             58.2 
    ##  2 United States      male   3940328915   820216             20.8 
    ##  3 Japan              male   1796237345   555272             30.9 
    ##  4 Ukraine            male    591598875   258573             43.7 
    ##  5 Japan              female 1884787499   251630             13.4 
    ##  6 France             male    808977854   239708             29.6 
    ##  7 Russian Federation female 1980710973   214330             10.8 
    ##  8 United States      female 4113698286   213797              5.20
    ##  9 Germany            male    986239175   211555             21.5 
    ## 10 Republic of Korea  male    677995723   179115             26.4 
    ## #  with 192 more rows
…
